%YAML 1.1
%TAG !u! tag:unity3d.com,2011:
--- !u!1 &1022721332170433060
GameObject:
  m_ObjectHideFlags: 0
  m_CorrespondingSourceObject: {fileID: 0}
  m_PrefabInstance: {fileID: 0}
  m_PrefabAsset: {fileID: 0}
  serializedVersion: 6
  m_Component:
  - component: {fileID: 7846198541029673998}
  m_Layer: 0
  m_Name: "Formaci\xF3n 2"
  m_TagString: Untagged
  m_Icon: {fileID: 0}
  m_NavMeshLayer: 0
  m_StaticEditorFlags: 0
  m_IsActive: 1
--- !u!4 &7846198541029673998
Transform:
  m_ObjectHideFlags: 0
  m_CorrespondingSourceObject: {fileID: 0}
  m_PrefabInstance: {fileID: 0}
  m_PrefabAsset: {fileID: 0}
  m_GameObject: {fileID: 1022721332170433060}
  m_LocalRotation: {x: 0, y: 0, z: 0, w: 1}
  m_LocalPosition: {x: 0, y: 0, z: 0}
  m_LocalScale: {x: 1, y: 1, z: 1}
  m_Children:
  - {fileID: 7422322617965731982}
  - {fileID: 3768936448469425666}
  m_Father: {fileID: 0}
  m_RootOrder: 0
  m_LocalEulerAnglesHint: {x: 0, y: 0, z: 0}
--- !u!1001 &2940823993997649028
PrefabInstance:
  m_ObjectHideFlags: 0
  serializedVersion: 2
  m_Modification:
    m_TransformParent: {fileID: 7846198541029673998}
    m_Modifications:
    - target: {fileID: 1805124841827587165, guid: 4d800102eecbd1c46b14708a380c0c96,
        type: 3}
      propertyPath: m_Name
      value: HardEnemy (1)
      objectReference: {fileID: 0}
    - target: {fileID: 5750679802702791690, guid: 4d800102eecbd1c46b14708a380c0c96,
        type: 3}
      propertyPath: m_LocalPosition.x
      value: 0
      objectReference: {fileID: 0}
    - target: {fileID: 5750679802702791690, guid: 4d800102eecbd1c46b14708a380c0c96,
        type: 3}
      propertyPath: m_LocalPosition.y
      value: 1
      objectReference: {fileID: 0}
    - target: {fileID: 5750679802702791690, guid: 4d800102eecbd1c46b14708a380c0c96,
        type: 3}
      propertyPath: m_LocalPosition.z
      value: 0
      objectReference: {fileID: 0}
    - target: {fileID: 5750679802702791690, guid: 4d800102eecbd1c46b14708a380c0c96,
        type: 3}
      propertyPath: m_LocalRotation.x
      value: -0
      objectReference: {fileID: 0}
    - target: {fileID: 5750679802702791690, guid: 4d800102eecbd1c46b14708a380c0c96,
        type: 3}
      propertyPath: m_LocalRotation.y
      value: -0
      objectReference: {fileID: 0}
    - target: {fileID: 5750679802702791690, guid: 4d800102eecbd1c46b14708a380c0c96,
        type: 3}
      propertyPath: m_LocalRotation.z
      value: -0
      objectReference: {fileID: 0}
    - target: {fileID: 5750679802702791690, guid: 4d800102eecbd1c46b14708a380c0c96,
        type: 3}
      propertyPath: m_LocalRotation.w
      value: 1
      objectReference: {fileID: 0}
    - target: {fileID: 5750679802702791690, guid: 4d800102eecbd1c46b14708a380c0c96,
        type: 3}
      propertyPath: m_RootOrder
      value: 0
      objectReference: {fileID: 0}
    - target: {fileID: 5750679802702791690, guid: 4d800102eecbd1c46b14708a380c0c96,
        type: 3}
      propertyPath: m_LocalEulerAnglesHint.x
      value: 0
      objectReference: {fileID: 0}
    - target: {fileID: 5750679802702791690, guid: 4d800102eecbd1c46b14708a380c0c96,
        type: 3}
      propertyPath: m_LocalEulerAnglesHint.y
      value: 0
      objectReference: {fileID: 0}
    - target: {fileID: 5750679802702791690, guid: 4d800102eecbd1c46b14708a380c0c96,
        type: 3}
      propertyPath: m_LocalEulerAnglesHint.z
      value: 0
      objectReference: {fileID: 0}
    m_RemovedComponents: []
  m_SourcePrefab: {fileID: 100100000, guid: 4d800102eecbd1c46b14708a380c0c96, type: 3}
--- !u!4 &7422322617965731982 stripped
Transform:
  m_CorrespondingSourceObject: {fileID: 5750679802702791690, guid: 4d800102eecbd1c46b14708a380c0c96,
    type: 3}
  m_PrefabInstance: {fileID: 2940823993997649028}
  m_PrefabAsset: {fileID: 0}
--- !u!1001 &8900088632356362760
PrefabInstance:
  m_ObjectHideFlags: 0
  serializedVersion: 2
  m_Modification:
    m_TransformParent: {fileID: 7846198541029673998}
    m_Modifications:
    - target: {fileID: 1805124841827587165, guid: 4d800102eecbd1c46b14708a380c0c96,
        type: 3}
      propertyPath: m_Name
      value: HardEnemy
      objectReference: {fileID: 0}
    - target: {fileID: 5750679802702791690, guid: 4d800102eecbd1c46b14708a380c0c96,
        type: 3}
      propertyPath: m_LocalPosition.x
      value: 0
      objectReference: {fileID: 0}
    - target: {fileID: 5750679802702791690, guid: 4d800102eecbd1c46b14708a380c0c96,
        type: 3}
      propertyPath: m_LocalPosition.y
      value: -1
      objectReference: {fileID: 0}
    - target: {fileID: 5750679802702791690, guid: 4d800102eecbd1c46b14708a380c0c96,
        type: 3}
      propertyPath: m_LocalPosition.z
      value: 0
      objectReference: {fileID: 0}
    - target: {fileID: 5750679802702791690, guid: 4d800102eecbd1c46b14708a380c0c96,
        type: 3}
      propertyPath: m_LocalRotation.x
      value: -0
      objectReference: {fileID: 0}
    - target: {fileID: 5750679802702791690, guid: 4d800102eecbd1c46b14708a380c0c96,
        type: 3}
      propertyPath: m_LocalRotation.y
      value: -0
      objectReference: {fileID: 0}
    - target: {fileID: 5750679802702791690, guid: 4d800102eecbd1c46b14708a380c0c96,
        type: 3}
      propertyPath: m_LocalRotation.z
      value: -0
      objectReference: {fileID: 0}
    - target: {fileID: 5750679802702791690, guid: 4d800102eecbd1c46b14708a380c0c96,
        type: 3}
      propertyPath: m_LocalRotation.w
      value: 1
      objectReference: {fileID: 0}
    - target: {fileID: 5750679802702791690, guid: 4d800102eecbd1c46b14708a380c0c96,
        type: 3}
      propertyPath: m_RootOrder
      value: 1
      objectReference: {fileID: 0}
    - target: {fileID: 5750679802702791690, guid: 4d800102eecbd1c46b14708a380c0c96,
        type: 3}
      propertyPath: m_LocalEulerAnglesHint.x
      value: 0
      objectReference: {fileID: 0}
    - target: {fileID: 5750679802702791690, guid: 4d800102eecbd1c46b14708a380c0c96,
        type: 3}
      propertyPath: m_LocalEulerAnglesHint.y
      value: 0
      objectReference: {fileID: 0}
    - target: {fileID: 5750679802702791690, guid: 4d800102eecbd1c46b14708a380c0c96,
        type: 3}
      propertyPath: m_LocalEulerAnglesHint.z
      value: 0
      objectReference: {fileID: 0}
    m_RemovedComponents: []
  m_SourcePrefab: {fileID: 100100000, guid: 4d800102eecbd1c46b14708a380c0c96, type: 3}
--- !u!4 &3768936448469425666 stripped
Transform:
  m_CorrespondingSourceObject: {fileID: 5750679802702791690, guid: 4d800102eecbd1c46b14708a380c0c96,
    type: 3}
  m_PrefabInstance: {fileID: 8900088632356362760}
  m_PrefabAsset: {fileID: 0}
